…
## What is mean total number of steps taken per day?
We will work with dataframe with no missing values, and make new dataframe, that represent total number of steps taken per day.

```r
steps_per_day <- complete_data %>%
  group_by(date) %>%
  summarise(sum = sum(steps))
print(steps_per_day, n=3)
```

```
## # A tibble: 53 x 2
##   date         sum
##   <date>     <int>
## 1 2012-10-02   126
## 2 2012-10-03 11352
## 3 2012-10-04 12116
## # ... with 50 more rows
```
…
## What is the average daily activity pattern?
We will work with dataframe with no missing values, and make new dataframe, that represent total number of steps taken per interval.

```r
steps_per_interval <- complete_data %>%
  group_by(f_interval) %>%
  summarise(sum = sum(steps))
print(steps_per_interval, n=3)
```

```
## # A tibble: 288 x 2
##   f_interval   sum
##   <fct>      <int>
## 1 0             91
## 2 5             18
## 3 10             7
## # ... with 285 more rows
```
…
```r
mean_steps_per_interval <- complete_data %>%
  group_by(f_interval) %>%
  summarise(mean = mean(steps))
print(mean_steps_per_interval, n=3)
```

```
## # A tibble: 288 x 2
##   f_interval  mean
##   <fct>      <dbl>
## 1 0          1.72 
## 2 5          0.340
## 3 10         0.132
## # ... with 285 more rows
```
…
